<svg width="24" height="24" viewBox="0 0 24 24" fill="none" xmlns="http://www.w3.org/2000/svg">
<path d="M3.23767 19.5C4.56308 17.2892 7.46795 15.7762 11.9999 15.7762C16.5319 15.7762 19.4368 17.2892 20.7622 19.5M15.5999 8.1C15.5999 10.0882 13.9882 11.7 11.9999 11.7C10.0117 11.7 8.39995 10.0882 8.39995 8.1C8.39995 6.11177 10.0117 4.5 11.9999 4.5C13.9882 4.5 15.5999 6.11177 15.5999 8.1Z" stroke="#242121" stroke-width="1.2" stroke-linecap="round"/>
</svg>
